[
    [
        "RN ten Doeschate",
        "4.00"
    ],
    [
        "J Yadav",
        "4.00"
    ],
    [
        "V Kohli",
        "5.45"
    ],
    [
        "R Ashwin",
        "5.74"
    ],
    [
        "Parvez Rasool",
        "6.00"
    ],
    [
        "S Nadeem",
        "6.00"
    ],
    [
        "M de Lange",
        "6.25"
    ],
    [
        "Z Khan",
        "6.46"
    ],
    [
        "MC Henriques",
        "6.48"
    ],
    [
        "CJ Anderson",
        "6.75"
    ]
]